Funcion esValido()
Inicio
    Si(umero<1 OR numero>50)
        retorna FALSE;
    Sino
        retorna TRUE;
    Fin-si
Fin
}
Inicio
    Variable contador es Numérico Real
        Variable numero es Numerico Real
        Variable suma es Numérico Real

    Leer "Digite un numero:", numero
    Si (esValido(numero))
        for(contador=0;contador <= numero;contador++)
            suma =(suma + contador)
        Endfor
        
        Escribir "La suma es: ",suma

    Sino
        Escribir "numero invalido"
    Fin-si
    
    
Fin